rel,src,alt
construction,1,
construction,2,
construction,3,
construction,4,
construction,5,
construction,6,
construction,7,
construction,8,
construction,9,
construction,10,
construction,11,
construction,12,
construction,13,
construction,14,
construction,15,
construction,16,
construction,17,
construction,18,
construction,19,
construction,20,
construction,21,
construction,22,
construction,23,
construction,24,
construction,25,
construction,26,
construction,27,
construction,28,
construction,29,
construction,30,
construction,31,
construction,32,
consulting,1,
consulting,2,
consulting,3,
consulting,4,
consulting,5,
consulting,6,
consulting,7,
consulting,8,
consulting,9,
consulting,10,
consulting,11,
consulting,12,
consulting,13,
consulting,14,
consulting,15,
consulting,16,
consulting,17,
consulting,18,
